C:\Revathi\Focus_Training\FinalCodeNXT\Cucumber_Test\src\main\java\com\hcl\util\ConnectionData.java
C:\Revathi\Focus_Training\FinalCodeNXT\Cucumber_Test\src\main\java\com\hcl\dao\EmployeeDao.java
C:\Revathi\Focus_Training\FinalCodeNXT\Cucumber_Test\src\main\java\com\hcl\model\Employee.java
C:\Revathi\Focus_Training\FinalCodeNXT\Cucumber_Test\src\main\java\com\hcl\main\Main.java
